{

  "title": "#(title)",
  "description": "#(description)",
  "assignee_id": "#(assigneeId)",
  "confidential": "#(confidential)",
  "created_at": "#(createdOn)",
  "discussion_to_resolve": "#(discussionToResolve)",
  "due_date": "#(dueDate)",
  "issue_type": "#(issueType)",
  "labels": "#(labels)",
  "milestone_id": "#(milestoneId)",
  "weight": "#(weight)"

}
